<?xml version="1.0" encoding="UTF-8" standalone="no"?>
<!-- Created with Inkscape (http://www.inkscape.org/) -->

<svg
   xmlns:dc="http://purl.org/dc/elements/1.1/"
   xmlns:cc="http://creativecommons.org/ns#"
   xmlns:rdf="http://www.w3.org/1999/02/22-rdf-syntax-ns#"
   xmlns:svg="http://www.w3.org/2000/svg"
   xmlns="http://www.w3.org/2000/svg"
   xmlns:xlink="http://www.w3.org/1999/xlink"
   xmlns:sodipodi="http://sodipodi.sourceforge.net/DTD/sodipodi-0.dtd"
   xmlns:inkscape="http://www.inkscape.org/namespaces/inkscape"
   width="6"
   height="6"
   id="svg7041"
   version="1.1"
   inkscape:version="0.47 r22583"
   sodipodi:docname="led_red_black.svg">
  <defs
     id="defs7043">
    <inkscape:perspective
       sodipodi:type="inkscape:persp3d"
       inkscape:vp_x="0 : 526.18109 : 1"
       inkscape:vp_y="0 : 1000 : 0"
       inkscape:vp_z="744.09448 : 526.18109 : 1"
       inkscape:persp3d-origin="372.04724 : 350.78739 : 1"
       id="perspective7049" />
    <inkscape:perspective
       id="perspective7015"
       inkscape:persp3d-origin="0.5 : 0.33333333 : 1"
       inkscape:vp_z="1 : 0.5 : 1"
       inkscape:vp_y="0 : 1000 : 0"
       inkscape:vp_x="0 : 0.5 : 1"
       sodipodi:type="inkscape:persp3d" />
    <radialGradient
       inkscape:collect="always"
       xlink:href="#linearGradient6997"
       id="radialGradient7003"
       cx="47.5"
       cy="21.5"
       fx="47.5"
       fy="21.5"
       r="2.5"
       gradientUnits="userSpaceOnUse" />
    <linearGradient
       id="linearGradient6997">
      <stop
         style="stop-color:#c30000;stop-opacity:0;"
         offset="0"
         id="stop6999" />
      <stop
         id="stop7005"
         offset="0.81999999"
         style="stop-color:#c30000;stop-opacity:0.49803922;" />
      <stop
         style="stop-color:#ffaeae;stop-opacity:1;"
         offset="1"
         id="stop7001" />
    </linearGradient>
    <radialGradient
       inkscape:collect="always"
       xlink:href="#linearGradient6243"
       id="radialGradient6993"
       cx="47.5"
       cy="21.5"
       fx="47.5"
       fy="21.5"
       r="2.5"
       gradientUnits="userSpaceOnUse" />
    <linearGradient
       id="linearGradient6243">
      <stop
         style="stop-color:#ffffff;stop-opacity:1;"
         offset="0"
         id="stop6245" />
      <stop
         style="stop-color:#ee0d0d;stop-opacity:0;"
         offset="1"
         id="stop6247" />
    </linearGradient>
    <radialGradient
       r="2.5"
       fy="62.5"
       fx="-87.5"
       cy="62.5"
       cx="-87.5"
       gradientUnits="userSpaceOnUse"
       id="radialGradient6444"
       xlink:href="#linearGradient6191-8"
       inkscape:collect="always" />
    <linearGradient
       id="linearGradient6191-8">
      <stop
         style="stop-color:#000000;stop-opacity:1;"
         offset="0"
         id="stop6193-9" />
      <stop
         id="stop6203-9"
         offset="0.45192984"
         style="stop-color:#000000;stop-opacity:1;" />
      <stop
         id="stop6199-8"
         offset="0.75999999"
         style="stop-color:#a6a6a6;stop-opacity:1;" />
      <stop
         style="stop-color:#353535;stop-opacity:1;"
         offset="0.91000003"
         id="stop6201-0" />
      <stop
         style="stop-color:#000000;stop-opacity:1;"
         offset="1"
         id="stop6195-0" />
    </linearGradient>
    <radialGradient
       r="2.5"
       fy="62.5"
       fx="-87.5"
       cy="62.5"
       cx="-87.5"
       gradientUnits="userSpaceOnUse"
       id="radialGradient7039"
       xlink:href="#linearGradient6191-8"
       inkscape:collect="always" />
  </defs>
  <sodipodi:namedview
     id="base"
     pagecolor="#ffffff"
     bordercolor="#666666"
     borderopacity="1.0"
     inkscape:pageopacity="0.0"
     inkscape:pageshadow="2"
     inkscape:zoom="98.118607"
     inkscape:cx="2.6717473"
     inkscape:cy="3.3179435"
     inkscape:document-units="px"
     inkscape:current-layer="layer1"
     showgrid="false"
     inkscape:window-width="1432"
     inkscape:window-height="1102"
     inkscape:window-x="37"
     inkscape:window-y="41"
     inkscape:window-maximized="0" />
  <metadata
     id="metadata7046">
    <rdf:RDF>
      <cc:Work
         rdf:about="">
        <dc:format>image/svg+xml</dc:format>
        <dc:type
           rdf:resource="http://purl.org/dc/dcmitype/StillImage" />
        <dc:title />
      </cc:Work>
    </rdf:RDF>
  </metadata>
  <g
     inkscape:label="Layer 1"
     inkscape:groupmode="layer"
     id="layer1"
     transform="translate(-437,-640.79075)">
    <path
       sodipodi:type="arc"
       style="fill:url(#radialGradient7039);fill-opacity:1;stroke:none"
       id="path6189-3"
       sodipodi:cx="-87.5"
       sodipodi:cy="62.5"
       sodipodi:rx="2.5"
       sodipodi:ry="2.5"
       d="m -85,62.5 c 0,1.380712 -1.119288,2.5 -2.5,2.5 -1.380712,0 -2.5,-1.119288 -2.5,-2.5 0,-1.380712 1.119288,-2.5 2.5,-2.5 1.380712,0 2.5,1.119288 2.5,2.5 z"
       transform="matrix(1.2,0,0,1.2,545,568.79075)" />
    <path
       sodipodi:type="arc"
       style="fill:#c30000;fill-opacity:1;stroke:none"
       id="path6983"
       sodipodi:cx="47.5"
       sodipodi:cy="21.5"
       sodipodi:rx="2.5"
       sodipodi:ry="2.5"
       d="M 50,21.5 C 50,22.880712 48.880712,24 47.5,24 46.119288,24 45,22.880712 45,21.5 45,20.119288 46.119288,19 47.5,19 c 1.380712,0 2.5,1.119288 2.5,2.5 z"
       transform="translate(392.5,622.29075)" />
    <path
       transform="translate(392.5,622.29075)"
       d="M 50,21.5 C 50,22.880712 48.880712,24 47.5,24 46.119288,24 45,22.880712 45,21.5 45,20.119288 46.119288,19 47.5,19 c 1.380712,0 2.5,1.119288 2.5,2.5 z"
       sodipodi:ry="2.5"
       sodipodi:rx="2.5"
       sodipodi:cy="21.5"
       sodipodi:cx="47.5"
       id="path6995"
       style="fill:url(#radialGradient7003);fill-opacity:1;stroke:none"
       sodipodi:type="arc" />
    <path
       transform="translate(392.9,621.89075)"
       d="M 50,21.5 C 50,22.880712 48.880712,24 47.5,24 46.119288,24 45,22.880712 45,21.5 45,20.119288 46.119288,19 47.5,19 c 1.380712,0 2.5,1.119288 2.5,2.5 z"
       sodipodi:ry="2.5"
       sodipodi:rx="2.5"
       sodipodi:cy="21.5"
       sodipodi:cx="47.5"
       id="path6985"
       style="fill:url(#radialGradient6993);fill-opacity:1;stroke:none"
       sodipodi:type="arc" />
  </g>
</svg>
